﻿[
	{
		"_id": "co-50",
		"_parentId": "course",
		"_type": "page",
		"_classes": "",
		"height":"570",
		"title": "Introdução",
		"displayTitle": "Introdução",
		"pageBody": "Os anúncios em carrossel estão disponíveis no Facebook, no Instagram e no Audience Network, permitindo que você alcance mais pessoas em mais lugares.",
		"body": "Os anúncios em carrossel estão disponíveis no Facebook, no Instagram e no Audience Network, permitindo que você alcance mais pessoas em mais lugares.",
		"_graphic": {
			"src": "course/en/images/contentObjects/landing_01.png",
			"alt": "Introdução"
		},
		"linkText": "Ver",
		"durationLabel": "Duração:",
		"duration": "4 min",
		"_pageLevelProgress": {
			"_isEnabled": true
		}
	},
    {
		"_id": "co-100",
		"_parentId": "course",
		"_type": "page",
		"_classes": "",
		"height":"570",
		"title": "Como as empresas podem usar o formato carrossel",
		"displayTitle": "Como as empresas podem usar o formato carrossel",
		"pageBody": "Veremos como os anunciantes podem usar o formato carrossel de diferentes maneiras.",
		"body": "Veremos como os anunciantes podem usar o formato carrossel de diferentes maneiras.",
		"_graphic": {
			"src": "course/en/images/contentObjects/landing_02.png",
			"alt": "Como as empresas podem usar o formato carrossel"
		},
		"linkText": "Visualizar",
		"durationLabel": "Duração:",
		"duration": "4 min",
		"_pageLevelProgress": {
			"_isEnabled": true
		}
	},
    {
		"_id": "co-150",
		"_parentId": "course",
		"_type": "page",
		"_classes": "",
		"height":"570",
		"title": "Dicas e considerações",
		"displayTitle": "Dicas e considerações",
		"pageBody": "Vamos examinar algumas questões e dicas de criativo para criar anúncios em carrossel.",
		"body": "Vamos examinar algumas questões e dicas de criativo para criar anúncios em carrossel.",
		"_graphic": {
			"src": "course/en/images/contentObjects/landing_03.png",
			"alt": "Dicas e considerações"
		},
		"linkText": "Visualizar",
		"durationLabel": "Duração:",
		"duration": "4 min",
		"_pageLevelProgress": {
			"_isEnabled": true
		}
	},
    {
		"_id": "co-200",
		"_parentId": "course",
		"_type": "page",
		"_classes": "",
		"height":"570",
		"title": "Casos de sucesso",
		"displayTitle": "Casos de sucesso",
		"pageBody": "Vejamos como as empresas estão usando o formato carrossel.",
		"body": "Vejamos como as empresas estão usando o formato carrossel.",
		"_graphic": {
			"src": "course/en/images/contentObjects/landing_04.png",
			"alt": "Casos de sucesso"
		},
		"linkText": "Ver",
		"durationLabel": "Duração:",
		"duration": "4 min",
		"_pageLevelProgress": {
			"_isEnabled": true
		}
	},
    {
		"_id": "co-250",
		"_parentId": "course",
		"_type": "page",
		"_classes": "",
		"height":"570",
		"title": "Passo a passo",
		"displayTitle": "Passo a passo",
		"pageBody": "Vamos percorrer as etapas para criar um anúncio em carrossel.",
		"body": "Vamos percorrer as etapas para criar um anúncio em carrossel.",
		"_graphic": {
			"src": "course/en/images/contentObjects/landing_05.png",
			"alt": "Passo a passo"
		},
		"linkText": "Visualizar",
		"durationLabel": "Duração:",
		"duration": "4 minutos",
		"_pageLevelProgress": {
			"_isEnabled": true
		}
	},
    {
		"_id": "co-300",
		"_parentId": "course",
		"_type": "page",
		"_classes": "",
		"height":"570",
		"title": "Verificação de conhecimentos",
		"displayTitle": "Verificação de conhecimentos",
		"pageBody": "Abordamos diversos tópicos neste curso, então vamos fazer uma revisão rápida de tudo que você aprendeu.",
		"body": "Abordamos diversos tópicos neste curso, então vamos fazer uma revisão rápida de tudo que você aprendeu.",
		"_graphic": {
			"src": "course/en/images/contentObjects/landing_06.png",
			"alt": "Verificação de conhecimentos"
		},
		"linkText": "Ver",
		"durationLabel": "Duração:",
		"duration": "4 min",
		"_pageLevelProgress": {
			"_isEnabled": true
		}
	}
]
